﻿[
    {
        "Id": "1",
        "CreationDate": "2016-10-25",
        "Title": "Forecast",
        "ForecastName": "Name ",
        "TargetPeriod": "Date",
        "StartDate": "2016.10.25",
        "EndDate": "2016.10.25",
        "ForecastType": "sample",
        "MonetaryGoal": "Goal",
        "Phone": "700070003",
        "Email": "Sample@gmail.com",
        "IncludeClientHistoryWeighting": "active",
        "ForecastGroupType": "sample",
        "ForecastGroup": "sample",
        "IncludeSalesman": "Yes Or No",
        "Amount": "Amount",
        "ReportsRun": "Result",
        "ShortDescription": "Description: Lorem Ipsum is simply dummy text.",
        "Description": "Description: Lorem Ipsum is simply dummy text of the printing and typesetting industry.",
        "Items": [
            {
                "ItemId": "1",
                "SalesStage": "Stage",
                "Probability": "50",
                "Percent": "50%",
                "From": "5000",
                "To": "15000",
                "Operator": "1"
            },
            {
                "ItemId": "2",
                "SalesStage": "Stage",
                "Probability": "50",
                "Percent": "50%",
                "From": "5000",
                "To": "15000",
                "Operator": "1"
            },
            {
                "ItemId": "3",
                "SalesStage": "Stage",
                "Probability": "50",
                "Percent": "50%",
                "From": "5000",
                "To": "15000",
                "Operator": "3"
            }
        ]
    },
    {
        "Id": "2",
        "CreationDate": "2016-10-25",
        "Title": "Forecast",
        "ForecastName": "Name ",
        "TargetPeriod": "sample",
        "StartDate": "2016.10.25",
        "EndDate": "2016.10.25",
        "ForecastType": "sample",
        "CalculationField": "sample",
        "MonetaryGoal": "Goal",
        "Phone": "700070003",
        "Email": "Sample@gmail.com",
        "IncludeClient History Weighting": "active",
        "ForecastGroup Type": "sample",
        "ForecastGroup": "sample",
        "IncludeSalesman": "active",
        "ReportsRun": "Result",
        "ShortDescription": "Description: Lorem Ipsum is simply dummy text.",
        "Description": "Description: Lorem Ipsum is simply dummy text of the printing and typesetting industry.",
        "Items": [
            {
                "ItemId": "1",
                "SalesStage": "Stage",
                "Probability": "50",
                "Percent": "50%",
                "From": "5000",
                "To": "15000",
                "Operator": "1"
            },
            {
                "ItemId": "2",
                "SalesStage": "Stage",
                "Probability": "50",
                "Percent": "50%",
                "From": "5000",
                "To": "15000",
                "Operator": "1"
            },
            {
                "ItemId": "3",
                "SalesStage": "Stage",
                "Probability": "50",
                "Percent": "50%",
                "From": "5000",
                "To": "15000",
                "Operator": "3"
            }
        ]
    }
]