﻿[
    {
        "Id": "1",
        "CreateDate": "01/01/2016",
        "PriceBookName": "Pricebook Contact 2",
        "Active": "active",
        "PricingModel": "model",
        "Phone": "700070003",
        "Email": "Sample@gmail.com",
        "ShortDescription": "Description: Lorem Ipsum is simply dummy text of the printing and typesetting industry.",
        "Items": [
            {
                "PricebookItemId": "1",
                "From": "5000",
                "To": "15000",
                "Operator": "1"
            },
            {
                "PricebookItemId": "2",
                "From": "5000",
                "To": "15000",
                "Operator": "1"
            },
            {
                "PricebookItemId": "2",
                "From": "5000",
                "To": "15000",
                "Operator": "3"
            }
        ]
    },
    {
        "Id": "2",
        "CreateDate": "01/01/2016",
        "PriceBookName": "Pricebook Contact 2",
        "Active": "active",
        "PricingModel": "model",
        "Phone": "700070003",
        "Email": "Sample@gmail.com",
        "ShortDescription": "Description: Lorem Ipsum is simply dummy text of the printing and typesetting industry.",
        "Items": [
            {
                "PricebookItemId": "3",
                "From": "5000",
                "To": "15000",
                "Operator": "1"
            },
            {
                "PricebookItemId": "4",
                "From": "5000",
                "To": "15000",
                "Operator": "1"
            },
            {
                "PricebookItemId": "6",
                "From": "5000",
                "To": "15000",
                "Operator": "3"
            }
        ]
    }
]