﻿[
	{
    "Name": "Lead Contact 1",
    "Value" : "Lead Contact 1"
	},
  {
    "Name": "Lead Contact 2",
    "Value": "Lead Contact 2"
  },
  {
    "Name": "Lead Contact 3",
    "Value": "Lead Contact 3"
  },
  {
    "Name": "Lead Contact 4",
    "Value": "Lead Contact 4"
  },
  {
    "Name": "Lead Contact 5",
    "Value": "Lead Contact 5"
  },
  {
    "Name": "Lead Contact 6",
    "Value" : "Lead Contact 6"
	}
]